%YAML 1.1
%TAG !u! tag:unity3d.com,2011:
--- !u!114 &11400000
MonoBehaviour:
  m_ObjectHideFlags: 0
  m_CorrespondingSourceObject: {fileID: 0}
  m_PrefabInstance: {fileID: 0}
  m_PrefabAsset: {fileID: 0}
  m_GameObject: {fileID: 0}
  m_Enabled: 1
  m_EditorHideFlags: 0
  m_Script: {fileID: 11500000, guid: a6b194f808b1af6499c93410e504af42, type: 3}
  m_Name: S_Anim_Atlas
  m_EditorClassIdentifier: 
  atlasFile: {fileID: 4900000, guid: f4055ffd1598a3b48bce1a8e3720ced7, type: 3}
  materials:
  - {fileID: 2100000, guid: 54ef0a1e56c585441bbca9f5d0c080f0, type: 2}
